Id,Synopsis,Problem-Level,Fix-ETA,Planned-Release,State,State-Age(Days),Responsible
751502-1,LACP kernel code reduction,6-IL4,,13.2,under-analysis,96,cna
751502-2,LACP kernel code reduction,6-IL4,,13.3,under-analysis,96,cna
863787-1,Tracking RLI 16040 VRF Localization & composite nexthop optimization on Trio and Cassis,6-IL4,,PVT_MX_VRF_LOCALIZATION_BRANCH,assigned,96,nscsekhar
464586-13,Determine a best fit data structure for key searches,6-IL4,29-06-2014,PR_BRANCH,assigned,381,rgovindarajan
820692-1,Tracking RLI 20060 Scaling support for LACP,5-IL3,,,open,96,vsriram
751502-3,LACP kernel code reduction,6-IL4,,14.1,assigned,96,cna
