Id,Synopsis,Problem-Level,Fix-ETA,Planned-Release,State,State-Age(Days),Originator
256431-1,"tnp.bootpd[16373]: ipc_pipe_write failed, No route to host",6-IL4,29-06-2014,,assigned,1522,pmoskal
905474-2,LAG ENH: Replication error seen while changing the address on ae IFLs,4-IL2,29-06-2014,DEV_EABU_14Q2_BRANCH,assigned,219,aarul
102632-1,"The presence of a ""OSE"" PIC in a system, shown in the cli command show pfe terse, remains even after the PIC has physically been removed.  Only a RE reboot will fix this.",6-IL4,29-06-2014,,assigned,1522,sgrant
935090-9,MTU change on one interface on 16 10G MPC causes traffic interruption on other interfaces,1-CL1,30-11-2013,13.3R1,verify-resolution,95,blarson
935090-1,MTU change on one interface on 16 10G MPC causes traffic interruption on other interfaces,1-CL1,30-11-2013,DEV_X_123_ATT_BRANCH,assigned,95,blarson
935090-8,MTU change on one interface on 16 10G MPC causes traffic interruption on other interfaces,1-CL1,30-11-2013,12.3R6,assigned,95,blarson
935090-10,MTU change on one interface on 16 10G MPC causes traffic interruption on other interfaces,1-CL1,30-11-2013,13.2R3,assigned,95,blarson
935090-11,MTU change on one interface on 16 10G MPC causes traffic interruption on other interfaces,1-CL1,30-11-2013,13.3R2,assigned,95,blarson
935090-7,MTU change on one interface on 16 10G MPC causes traffic interruption on other interfaces,1-CL1,30-11-2013,14.1R1,assigned,95,blarson
935090-3,MTU change on one interface on 16 10G MPC causes traffic interruption on other interfaces,1-CL1,30-11-2013,12.3R5,verify-resolution,95,blarson
935090-2,MTU change on one interface on 16 10G MPC causes traffic interruption on other interfaces,1-CL1,30-11-2013,DEV_X_123_X30_BRANCH,assigned,95,blarson
821840-3,CSIM: FRR shows subsequent traffic loss while in process of global repair,2-CL2,12-10-2012,DEV_X_123_ATT_BRANCH,monitored,95,bpacheco
59190-1,enhancement request: re->pfe link utilization high water mark,6-IL4,,,ned-info,95,Dave Curado
926132-1,Windsurf: MX2010: XL[0:0]-0 Congestion Detected seen on changing Bridge Domain Name,4-IL2,29-06-2014,DEV_SCUBA_V4_BRANCH,assigned,244,hrgadige
464586-13,Determine a best fit data structure for key searches,6-IL4,29-06-2014,PR_BRANCH,assigned,380,rgovindarajan
869591-5,"[G2][DPI][PERFORMANCE] vmcore dump in sched_switch (td=0xffffff0348820620, newtd=0xffffff040ff66310, flags=6) at ../../../../../../src/bsd/sys/kern/sched_4bsd.c:1458",4-IL2,29-06-2014,14.1,assigned,0,gpreddy
869591-4,"[G2][DPI][PERFORMANCE] vmcore dump in sched_switch (td=0xffffff0348820620, newtd=0xffffff040ff66310, flags=6) at ../../../../../../src/bsd/sys/kern/sched_4bsd.c:1458",4-IL2,29-06-2014,13.3R1,assigned,0,gpreddy
938037-1,interface input/output rate not being shown sometimes on scaled setup,4-IL2,,DEV_X_123_ATT_BRANCH,ned-info,95,ichunikhin
702288-2,"HA: After enabling container interfaces, node panics and goes into db prompt",6-IL4,,12.2R1,assigned,95,kbgandhi
528533-4,Test Apply all scopes Tracking RLI 13671 MPLS label pop and next hop to services PIC for NAT abc test xyz abc,6-IL4,29-06-2014,11.1B1,verify-resolution,233,mguglani
528533-3,Test Apply all scopes Tracking RLI 13671 MPLS label pop and next hop to services PIC for NAT abc test xyz abc,6-IL4,29-06-2014,10.3R2,verify-resolution,233,mguglani
63263-1,Infrastructure for static MPLS routes over IPv6,6-IL4,29-06-2014,,assigned,1522,Debbie Chu
909795-1,AE DC: kernel panic at kdb_enter kmem_malloc with max number of AE support (480),4-IL2,29-06-2014,12.3R3,assigned,297,slau
856809-1,Rebooting of REs put the master RE into db prompt. Panic at rt_pfe_nh_cont_decrement_ack_count,4-IL2,29-06-2014,12.3R2,assigned,324,aarul
821840-1,CSIM: FRR shows subsequent traffic loss while in process of global repair,2-CL2,12-10-2012,12.1R5,monitored,95,bpacheco
821840-2,CSIM: FRR shows subsequent traffic loss while in process of global repair,2-CL2,12-10-2012,12.3R2,monitored,95,bpacheco
907106-1,AE DC: ERROR received async message with no handler:   During ISSU,4-IL2,29-06-2014,DEC_JE_14Q2_BRANCH,assigned,217,slau
528533-2,Test Apply all scopes Tracking RLI 13671 MPLS label pop and next hop to services PIC for NAT abc test xyz abc,6-IL4,29-06-2014,10.4B3,verify-resolution,233,mguglani
